auc: 0.5476875019994928
0.4527439024390244 1.0 0.0
0.48679678530424797 0.7138047138047138 3.426591e-06
0.4862068965517241 0.7121212121212122 7.285857e-06
0.48676639815880324 0.7121212121212122 1.8532324e-05
0.4873271889400922 0.7121212121212122 2.0032438e-05
0.48788927335640137 0.7121212121212122 2.4914709e-05
0.4884526558891455 0.7121212121212122 3.75058e-05
0.48786127167630056 0.7104377104377104 4.0515228e-05
0.48842592592592593 0.7104377104377104 5.549305e-05
0.48899188876013905 0.7104377104377104 5.7165566e-05
0.4895591647331787 0.7104377104377104 5.722312e-05
0.4889663182346109 0.7087542087542088 5.7689784e-05
0.4883720930232558 0.7070707070707071 6.0228354e-05
0.48777648428405124 0.7053872053872053 6.250907e-05
0.48834498834498835 0.7053872053872053 7.9672456e-05
0.48891481913652274 0.7053872053872053 9.878414e-05
0.4894859813084112 0.7053872053872053 9.95129e-05
0.49005847953216375 0.7053872053872053 0.00010909953
0.49063231850117095 0.7053872053872053 0.00012684819
0.4912075029308324 0.7053872053872053 0.00014759671
0.49178403755868544 0.7053872053872053 0.00017166557
0.49236192714453586 0.7053872053872053 0.00021436588
0.4929411764705882 0.7053872053872053 0.00021875845
0.49352179034157834 0.7053872053872053 0.00022954596
0.49410377358490565 0.7053872053872053 0.00024350887
0.4946871310507674 0.7053872053872053 0.00025067801
0.49527186761229314 0.7053872053872053 0.0002658142
0.4958579881656805 0.7053872053872053 0.00027029534
0.495260663507109 0.7037037037037037 0.0002719284
0.4958481613285884 0.7037037037037037 0.00027742222
0.49643705463182897 0.7037037037037037 0.00029372098
0.49702734839476814 0.7037037037037037 0.00030349664
0.4976190476190476 0.7037037037037037 0.00032016105
0.49821215733015495 0.7037037037037037 0.0003233788
0.4988066825775656 0.7037037037037037 0.0003309136
0.4994026284348865 0.7037037037037037 0.00035721425
0.4988038277511962 0.702020202020202 0.00036127397
0.4994011976047904 0.702020202020202 0.00036613506
0.5 0.702020202020202 0.00038587383
0.5006002400960384 0.702020202020202 0.00039666396
0.5012019230769231 0.702020202020202 0.00041553064
0.5018050541516246 0.702020202020202 0.00042242848
0.5024096385542168 0.702020202020202 0.00042674487
0.503015681544029 0.702020202020202 0.00042798536
0.5036231884057971 0.702020202020202 0.00043727498
0.5042321644498187 0.702020202020202 0.00045967227
0.5036319612590799 0.7003367003367004 0.00046268632
0.503030303030303 0.6986531986531986 0.0004667527
0.5036407766990292 0.6986531986531986 0.00046830505
0.5042527339003645 0.6986531986531986 0.00047680142
0.5036496350364964 0.696969696969697 0.0004943865
0.5042630937880633 0.696969696969697 0.0004981808
0.5048780487804878 0.696969696969697 0.00049879943
0.5042735042735043 0.6952861952861953 0.00051009
0.5048899755501223 0.6952861952861953 0.0005573865
0.5042839657282742 0.6936026936026936 0.00055762485
0.5049019607843137 0.6936026936026936 0.00056193984
0.505521472392638 0.6936026936026936 0.0005658489
0.5061425061425061 0.6936026936026936 0.0005668425
0.5067650676506765 0.6936026936026936 0.0005757373
0.5073891625615764 0.6936026936026936 0.0006102927
0.5080147965474723 0.6936026936026936 0.0006577835
0.508641975308642 0.6936026936026936 0.0006641052
0.5080346106304079 0.6919191919191919 0.00067079504
0.5086633663366337 0.6919191919191919 0.0006748141
0.5092936802973977 0.6919191919191919 0.00072741084
0.5086848635235732 0.6902356902356902 0.00072832534
0.5093167701863354 0.6902356902356902 0.0007586101
0.5087064676616916 0.6885521885521886 0.000759199
0.5093399750933998 0.6885521885521886 0.0007827846
0.5099750623441397 0.6885521885521886 0.00078879425
0.5093632958801498 0.6868686868686869 0.0007888185
0.51 0.6868686868686869 0.0007980251
0.5106382978723404 0.6868686868686869 0.0008030154
0.5100250626566416 0.6851851851851852 0.0008085616
0.5094102885821832 0.6835016835016835 0.0008179428
0.5100502512562815 0.6835016835016835 0.00082901574
0.5106918238993711 0.6835016835016835 0.000839254
0.5113350125944585 0.6835016835016835 0.0008588505
0.510718789407314 0.6818181818181818 0.00090400234
0.51010101010101 0.6801346801346801 0.0009146688
0.5107458912768648 0.6801346801346801 0.00095267245
0.5113924050632911 0.6801346801346801 0.0009529132
0.5107731305449936 0.6784511784511784 0.0009654364
0.5114213197969543 0.6784511784511784 0.0009769623
0.5120711562897078 0.6784511784511784 0.0009913894
0.5127226463104325 0.6784511784511784 0.0010157017
0.5121019108280255 0.6767676767676768 0.0010162091
0.5127551020408163 0.6767676767676768 0.0010175925
0.5134099616858238 0.6767676767676768 0.0010267042
0.5140664961636828 0.6767676767676768 0.001032099
0.5147247119078106 0.6767676767676768 0.0010333372
0.514102564102564 0.6750841750841751 0.0010377697
0.5134788189987163 0.6734006734006734 0.0010495217
0.5141388174807198 0.6734006734006734 0.0010544206
0.5148005148005148 0.6734006734006734 0.001059722
0.5141752577319587 0.6717171717171717 0.0010607484
0.5148387096774194 0.6717171717171717 0.0010747607
0.5142118863049095 0.67003367003367 0.0010784368
0.5148771021992238 0.67003367003367 0.0010819872
0.5155440414507773 0.67003367003367 0.0010991188
0.51621271076524 0.67003367003367 0.0011162437
0.5168831168831168 0.67003367003367 0.0011175077
0.5162548764629389 0.6683501683501684 0.0011200333
0.5169270833333334 0.6683501683501684 0.0011629201
0.5176010430247718 0.6683501683501684 0.0011636296
0.5169712793733682 0.6666666666666666 0.0011785448
0.5176470588235295 0.6666666666666666 0.0011859313
0.518324607329843 0.6666666666666666 0.0011881291
0.5190039318479686 0.6666666666666666 0.0012099093
0.5196850393700787 0.6666666666666666 0.0012297297
0.5203679369250985 0.6666666666666666 0.0012545247
0.5197368421052632 0.664983164983165 0.0012715401
0.5191040843214756 0.6632996632996633 0.0012795709
0.5184696569920845 0.6616161616161617 0.0012922627
0.5178335535006605 0.6599326599326599 0.0013094326
0.5171957671957672 0.6582491582491582 0.0013237488
0.5165562913907285 0.6565656565656566 0.0013258437
0.5172413793103449 0.6565656565656566 0.0013337708
0.5166002656042497 0.6548821548821548 0.00135111
0.5159574468085106 0.6531986531986532 0.0013624491
0.5166444740346205 0.6531986531986532 0.0013712205
0.5173333333333333 0.6531986531986532 0.0013730207
0.5166889185580774 0.6515151515151515 0.0013931858
0.516042780748663 0.6498316498316499 0.0013950742
0.5153949129852744 0.6481481481481481 0.0013990353
0.5160857908847185 0.6481481481481481 0.0014024798
0.5167785234899329 0.6481481481481481 0.0014093416
0.5161290322580645 0.6464646464646465 0.0014273186
0.5168236877523553 0.6464646464646465 0.0014577728
0.5161725067385444 0.6447811447811448 0.0014581217
0.5168690958164642 0.6447811447811448 0.0014869623
0.5175675675675676 0.6447811447811448 0.0014871235
0.516914749661705 0.6430976430976431 0.0014900474
0.516260162601626 0.6414141414141414 0.0014921924
0.5169606512890095 0.6414141414141414 0.0015014843
0.5176630434782609 0.6414141414141414 0.0015025298
0.5183673469387755 0.6414141414141414 0.0015395179
0.5177111716621253 0.6397306397306397 0.0015751215
0.5184174624829468 0.6397306397306397 0.0016007796
0.5191256830601093 0.6397306397306397 0.0016345086
0.5198358413132695 0.6397306397306397 0.0016648835
0.5205479452054794 0.6397306397306397 0.0016755264
0.5198902606310014 0.6380471380471381 0.0016868346
0.5206043956043956 0.6380471380471381 0.0016870934
0.5213204951856947 0.6380471380471381 0.0016906101
0.522038567493113 0.6380471380471381 0.0017022107
0.5213793103448275 0.6363636363636364 0.0017402216
0.5207182320441989 0.6346801346801347 0.0017439255
0.5200553250345782 0.632996632996633 0.0017463911
0.5207756232686981 0.632996632996633 0.0017603575
0.5201109570041609 0.6313131313131313 0.0017614813
0.5208333333333334 0.6313131313131313 0.0017649869
0.521557719054242 0.6313131313131313 0.0018070238
0.5222841225626741 0.6313131313131313 0.0018500317
0.5230125523012552 0.6313131313131313 0.0018510813
0.5223463687150838 0.6296296296296297 0.0018511703
0.5230769230769231 0.6296296296296297 0.001854886
0.5238095238095238 0.6296296296296297 0.0018893769
0.5231416549789621 0.6279461279461279 0.001890216
0.523876404494382 0.6279461279461279 0.0019540887
0.5232067510548524 0.6262626262626263 0.0019817827
0.523943661971831 0.6262626262626263 0.00200843
0.5232722143864598 0.6245791245791246 0.0020286913
0.5240112994350282 0.6245791245791246 0.002030626
0.5247524752475248 0.6245791245791246 0.0020435334
0.5240793201133145 0.622895622895623 0.0020473143
0.524822695035461 0.622895622895623 0.0020888925
0.5255681818181818 0.622895622895623 0.0020934534
0.5248933143669986 0.6212121212121212 0.0020949058
0.5242165242165242 0.6195286195286195 0.0020982614
0.5235378031383737 0.6178451178451179 0.0021293003
0.5242857142857142 0.6178451178451179 0.0021352703
0.525035765379113 0.6178451178451179 0.00214227
0.5257879656160458 0.6178451178451179 0.0021496804
0.5265423242467718 0.6178451178451179 0.00216323
0.5258620689655172 0.6161616161616161 0.0021712033
0.5251798561151079 0.6144781144781145 0.002171968
0.5244956772334294 0.6127946127946128 0.002182404
0.5252525252525253 0.6127946127946128 0.0021860765
0.5245664739884393 0.6111111111111112 0.0022193273
0.5253256150506512 0.6111111111111112 0.0022504989
0.5246376811594203 0.6094276094276094 0.0022683274
0.5239477503628447 0.6077441077441077 0.002285025
0.5247093023255814 0.6077441077441077 0.002294672
0.5254730713245997 0.6077441077441077 0.0023445631
0.5262390670553936 0.6077441077441077 0.002356555
0.527007299270073 0.6077441077441077 0.002359268
0.5277777777777778 0.6077441077441077 0.0023597504
0.527086383601757 0.6060606060606061 0.0023688066
0.5263929618768328 0.6043771043771043 0.0023855492
0.527165932452276 0.6043771043771043 0.0024291915
0.5279411764705882 0.6043771043771043 0.0024502852
0.5287187039764359 0.6043771043771043 0.002461244
0.5294985250737463 0.6043771043771043 0.0024748945
0.5288035450516987 0.6026936026936027 0.0024963636
0.5295857988165681 0.6026936026936027 0.0025248555
0.5288888888888889 0.601010101010101 0.0025454666
0.5281899109792285 0.5993265993265994 0.0025482858
0.5274888558692422 0.5976430976430976 0.0025523833
0.5282738095238095 0.5976430976430976 0.0025646877
0.5290611028315947 0.5976430976430976 0.0025648046
0.5283582089552239 0.5959595959595959 0.0025656074
0.5291479820627802 0.5959595959595959 0.0025793454
0.5299401197604791 0.5959595959595959 0.0026018645
0.5307346326836582 0.5959595959595959 0.0026332173
0.5315315315315315 0.5959595959595959 0.002636482
0.5323308270676692 0.5959595959595959 0.0026553615
0.5316265060240963 0.5942760942760943 0.0026560675
0.530920060331825 0.5925925925925926 0.002680981
0.5317220543806647 0.5925925925925926 0.0026891478
0.5325264750378215 0.5925925925925926 0.0027190228
0.5318181818181819 0.5909090909090909 0.002730145
0.5311077389984825 0.5892255892255892 0.002738746
0.5319148936170213 0.5892255892255892 0.0027442095
0.5312024353120244 0.5875420875420876 0.0027448284
0.5320121951219512 0.5875420875420876 0.002757235
0.5312977099236641 0.5858585858585859 0.0027755438
0.5321100917431193 0.5858585858585859 0.0027816913
0.5313935681470138 0.5841750841750841 0.0027903672
0.5306748466257669 0.5824915824915825 0.0027941647
0.5314900153609831 0.5824915824915825 0.0028013536
0.5323076923076923 0.5824915824915825 0.0028338584
0.5315870570107858 0.5808080808080808 0.0028398877
0.5308641975308642 0.5791245791245792 0.0028460664
0.5316846986089645 0.5791245791245792 0.0028644605
0.5325077399380805 0.5791245791245792 0.002904928
0.5333333333333333 0.5791245791245792 0.0029124767
0.5341614906832298 0.5791245791245792 0.0029272765
0.5334370139968896 0.5774410774410774 0.002929828
0.5327102803738317 0.5757575757575758 0.0029298326
0.5335413416536662 0.5757575757575758 0.00292988
0.5328125 0.5740740740740741 0.0029411833
0.5320813771517997 0.5723905723905723 0.0029451572
0.5329153605015674 0.5723905723905723 0.0029720033
0.533751962323391 0.5723905723905723 0.0029826108
0.5345911949685535 0.5723905723905723 0.0030145564
0.5338582677165354 0.5707070707070707 0.0030413351
0.5347003154574133 0.5707070707070707 0.003043088
0.5339652448657188 0.569023569023569 0.003056337
0.5348101265822784 0.569023569023569 0.0030728125
0.5356576862123613 0.569023569023569 0.0030887525
0.5349206349206349 0.5673400673400674 0.003096685
0.534181240063593 0.5656565656565656 0.0030975281
0.535031847133758 0.5656565656565656 0.0030996178
0.5342902711323764 0.563973063973064 0.0031064015
0.5335463258785943 0.5622895622895623 0.003106712
0.5344 0.5622895622895623 0.0031202156
0.5352564102564102 0.5622895622895623 0.003123594
0.536115569823435 0.5622895622895623 0.003125223
0.5369774919614148 0.5622895622895623 0.0031377336
0.5362318840579711 0.5606060606060606 0.0031388798
0.535483870967742 0.5589225589225589 0.0031706833
0.5347334410339257 0.5572390572390572 0.0031786135
0.5355987055016181 0.5572390572390572 0.0032022547
0.5348460291734197 0.5555555555555556 0.0032147437
0.5357142857142857 0.5555555555555556 0.0032330432
0.5349593495934959 0.5538720538720538 0.003275621
0.5358306188925082 0.5538720538720538 0.0033477845
0.5367047308319739 0.5538720538720538 0.0033636685
0.5375816993464052 0.5538720538720538 0.00337688
0.5368248772504092 0.5521885521885522 0.0033772578
0.5377049180327869 0.5521885521885522 0.0033804479
0.5385878489326765 0.5521885521885522 0.003409903
0.537828947368421 0.5505050505050505 0.003428069
0.5387149917627677 0.5505050505050505 0.0034449873
0.5396039603960396 0.5505050505050505 0.003456972
0.540495867768595 0.5505050505050505 0.0034578908
0.5413907284768212 0.5505050505050505 0.0034636012
0.5406301824212272 0.5488215488215489 0.00349613
0.5415282392026578 0.5488215488215489 0.0035151478
0.540765391014975 0.5471380471380471 0.003527246
0.54 0.5454545454545454 0.0035537903
0.5409015025041736 0.5454545454545454 0.0035578585
0.540133779264214 0.5437710437710438 0.0035596727
0.541038525963149 0.5437710437710438 0.0035811127
0.5419463087248322 0.5437710437710438 0.0035829702
0.5411764705882353 0.5420875420875421 0.0035870126
0.5404040404040404 0.5404040404040404 0.0035903577
0.5396290050590219 0.5387205387205387 0.0035994817
0.5405405405405406 0.5387205387205387 0.003599713
0.5414551607445008 0.5387205387205387 0.0036005732
0.5423728813559322 0.5387205387205387 0.0036289215
0.5415959252971138 0.5370370370370371 0.0036342067
0.5408163265306123 0.5353535353535354 0.0036611333
0.5417376490630323 0.5353535353535354 0.0036614842
0.5426621160409556 0.5353535353535354 0.0036863014
0.5435897435897435 0.5353535353535354 0.003695732
0.5445205479452054 0.5353535353535354 0.0037449994
0.5454545454545454 0.5353535353535354 0.0037810567
0.5463917525773195 0.5353535353535354 0.0038016066
0.5473321858864028 0.5353535353535354 0.0038253872
0.5482758620689655 0.5353535353535354 0.0038353358
0.5474956822107081 0.5336700336700336 0.0038369747
0.5484429065743944 0.5336700336700336 0.003853457
0.5476603119584056 0.531986531986532 0.0038855665
0.5486111111111112 0.531986531986532 0.0038961277
0.5495652173913044 0.531986531986532 0.0039084777
0.5487804878048781 0.5303030303030303 0.0039238133
0.5479930191972077 0.5286195286195287 0.0039347443
0.548951048951049 0.5286195286195287 0.003938307
0.5481611208406305 0.5269360269360269 0.003944199
0.5491228070175439 0.5269360269360269 0.0039484045
0.5500878734622144 0.5269360269360269 0.0039504273
0.551056338028169 0.5269360269360269 0.0039530536
0.5502645502645502 0.5252525252525253 0.003957446
0.549469964664311 0.5235690235690236 0.0040059607
0.5504424778761062 0.5235690235690236 0.004012363
0.549645390070922 0.5218855218855218 0.004016825
0.5506216696269982 0.5218855218855218 0.004031581
0.5516014234875445 0.5218855218855218 0.0040336745
0.5525846702317291 0.5218855218855218 0.004083525
0.5535714285714286 0.5218855218855218 0.004109177
0.552772808586762 0.5202020202020202 0.004118817
0.5519713261648745 0.5185185185185185 0.0041188775
0.5511669658886894 0.5168350168350169 0.0041258647
0.5503597122302158 0.5151515151515151 0.004133314
0.5513513513513514 0.5151515151515151 0.0041489685
0.5523465703971119 0.5151515151515151 0.00415348
0.5515370705244123 0.5134680134680135 0.0041549285
0.5507246376811594 0.5117845117845118 0.00415798
0.5499092558983666 0.51010101010101 0.0041593644
0.5490909090909091 0.5084175084175084 0.004163128
0.5482695810564663 0.5067340067340067 0.0041834535
0.5492700729927007 0.5067340067340067 0.0042045997
0.5484460694698354 0.5050505050505051 0.004205148
0.5476190476190477 0.5033670033670034 0.0042381966
0.5486238532110091 0.5033670033670034 0.004241491
0.5477941176470589 0.5016835016835017 0.0042613964
0.5469613259668509 0.5 0.0042956504
0.5461254612546126 0.4983164983164983 0.0043069925
0.5471349353049908 0.4983164983164983 0.004342993
0.5462962962962963 0.49663299663299665 0.004371872
0.5473098330241187 0.49663299663299665 0.0044053025
0.5464684014869888 0.494949494949495 0.0044497326
0.547486033519553 0.494949494949495 0.004451024
0.5485074626865671 0.494949494949495 0.0044547594
0.5495327102803739 0.494949494949495 0.0044688815
0.548689138576779 0.49326599326599324 0.0044966573
0.549718574108818 0.49326599326599324 0.0045022625
0.5507518796992481 0.49326599326599324 0.004502624
0.551789077212806 0.49326599326599324 0.0045133973
0.5528301886792453 0.49326599326599324 0.0045166053
0.553875236294896 0.49326599326599324 0.0045465883
0.553030303030303 0.49158249158249157 0.004561112
0.5521821631878557 0.4898989898989899 0.0045781755
0.5532319391634981 0.4898989898989899 0.0046266355
0.5542857142857143 0.4898989898989899 0.00469001
0.5553435114503816 0.4898989898989899 0.0047136275
0.5564053537284895 0.4898989898989899 0.004739216
0.5555555555555556 0.4882154882154882 0.0047421115
0.5566218809980806 0.4882154882154882 0.004743866
0.5557692307692308 0.48653198653198654 0.0047680503
0.5549132947976878 0.48484848484848486 0.0047923974
0.5540540540540541 0.4831649831649832 0.004797629
0.5551257253384912 0.4831649831649832 0.0048027122
0.5562015503875969 0.4831649831649832 0.00486997
0.5572815533980583 0.4831649831649832 0.004871195
0.556420233463035 0.48148148148148145 0.004874406
0.557504873294347 0.48148148148148145 0.004885246
0.55859375 0.48148148148148145 0.0048888484
0.5596868884540117 0.48148148148148145 0.004890684
0.5607843137254902 0.48148148148148145 0.0048907003
0.5618860510805501 0.48148148148148145 0.0049284664
0.5610236220472441 0.4797979797979798 0.004991479
0.5621301775147929 0.4797979797979798 0.00499977
0.5632411067193676 0.4797979797979798 0.0050131264
0.5623762376237624 0.4781144781144781 0.005022765
0.5634920634920635 0.4781144781144781 0.0050608865
0.562624254473161 0.4764309764309764 0.0050854366
0.5637450199203188 0.4764309764309764 0.0050913882
0.564870259481038 0.4764309764309764 0.0051297587
0.566 0.4764309764309764 0.00516998
0.5671342685370742 0.4764309764309764 0.0051819305
0.5682730923694779 0.4764309764309764 0.0051957523
0.5694164989939637 0.4764309764309764 0.005261968
0.5705645161290323 0.4764309764309764 0.005323639
0.5717171717171717 0.4764309764309764 0.005334504
0.5708502024291497 0.47474747474747475 0.00536564
0.5720081135902637 0.47474747474747475 0.0053666006
0.5711382113821138 0.4730639730639731 0.005406084
0.570264765784114 0.4713804713804714 0.005413837
0.5714285714285714 0.4713804713804714 0.0054344363
0.5725971370143149 0.4713804713804714 0.005437199
0.5737704918032787 0.4713804713804714 0.0054658176
0.5728952772073922 0.4696969696969697 0.0055065905
0.5740740740740741 0.4696969696969697 0.0055597867
0.5752577319587628 0.4696969696969697 0.0055950065
0.5764462809917356 0.4696969696969697 0.0056067994
0.577639751552795 0.4696969696969697 0.0056182747
0.578838174273859 0.4696969696969697 0.0056274068
0.577962577962578 0.468013468013468 0.0056549897
0.5770833333333333 0.4663299663299663 0.005659164
0.5762004175365344 0.46464646464646464 0.005668447
0.5774058577405857 0.46464646464646464 0.0057278667
0.5765199161425576 0.46296296296296297 0.0057355147
0.5756302521008403 0.4612794612794613 0.0057464964
0.5768421052631579 0.4612794612794613 0.0057656853
0.5780590717299579 0.4612794612794613 0.0057797413
0.5792811839323467 0.4612794612794613 0.005781235
0.5805084745762712 0.4612794612794613 0.0058469675
0.5796178343949044 0.4595959595959596 0.0058747404
0.5787234042553191 0.45791245791245794 0.005876139
0.579957356076759 0.45791245791245794 0.0059221545
0.5811965811965812 0.45791245791245794 0.006008109
0.582441113490364 0.45791245791245794 0.0060647205
0.5815450643776824 0.4562289562289562 0.0061933133
0.5806451612903226 0.45454545454545453 0.006267084
0.5797413793103449 0.45286195286195285 0.006286439
0.5788336933045356 0.4511784511784512 0.006301702
0.5800865800865801 0.4511784511784512 0.0063022594
0.5813449023861171 0.4511784511784512 0.0063160374
0.5804347826086956 0.4494949494949495 0.0063260174
0.5816993464052288 0.4494949494949495 0.0063462406
0.5807860262008734 0.4478114478114478 0.006356521
0.5820568927789934 0.4478114478114478 0.0063740415
0.5833333333333334 0.4478114478114478 0.006383589
0.5824175824175825 0.44612794612794615 0.006387388
0.5814977973568282 0.4444444444444444 0.006403835
0.5827814569536424 0.4444444444444444 0.0064195762
0.584070796460177 0.4444444444444444 0.0064490573
0.5853658536585366 0.4444444444444444 0.0064525646
0.5844444444444444 0.44276094276094274 0.0064528845
0.5857461024498887 0.44276094276094274 0.006486814
0.5870535714285714 0.44276094276094274 0.006523927
0.5883668903803132 0.44276094276094274 0.0065536676
0.5874439461883408 0.44107744107744107 0.00661248
0.5865168539325842 0.4393939393939394 0.0066947723
0.5855855855855856 0.4377104377104377 0.0067030513
0.5869074492099323 0.4377104377104377 0.0067361235
0.5859728506787331 0.43602693602693604 0.0067424467
0.5850340136054422 0.43434343434343436 0.0067674676
0.5840909090909091 0.43265993265993263 0.00677194
0.5854214123006833 0.43265993265993263 0.006789502
0.58675799086758 0.43265993265993263 0.006830529
0.5881006864988558 0.43265993265993263 0.0068355324
0.5894495412844036 0.43265993265993263 0.0068599125
0.5885057471264368 0.43097643097643096 0.006863729
0.5875576036866359 0.4292929292929293 0.006866656
0.5866050808314087 0.4276094276094276 0.0068943445
0.5879629629629629 0.4276094276094276 0.0070120865
0.5893271461716937 0.4276094276094276 0.007025823
0.5883720930232558 0.42592592592592593 0.0070356643
0.5897435897435898 0.42592592592592593 0.0070394543
0.5887850467289719 0.42424242424242425 0.0070588645
0.5878220140515222 0.4225589225589226 0.0070870733
0.5868544600938967 0.4208754208754209 0.0071527865
0.5882352941176471 0.4208754208754209 0.007161545
0.589622641509434 0.4208754208754209 0.007185222
0.5886524822695035 0.41919191919191917 0.00718969
0.590047393364929 0.41919191919191917 0.007194792
0.5890736342042755 0.4175084175084175 0.0072523924
0.5904761904761905 0.4175084175084175 0.007252725
0.5918854415274463 0.4175084175084175 0.007255051
0.5933014354066986 0.4175084175084175 0.0072562452
0.5947242206235012 0.4175084175084175 0.0073120487
0.59375 0.4158249158249158 0.0074326415
0.5927710843373494 0.41414141414141414 0.0074469303
0.5942028985507246 0.41414141414141414 0.00745354
0.5956416464891041 0.41414141414141414 0.0074874195
0.5970873786407767 0.41414141414141414 0.0075257733
0.5985401459854015 0.41414141414141414 0.007580128
0.6 0.41414141414141414 0.0076188026
0.5990220048899756 0.41245791245791247 0.007631589
0.6004901960784313 0.41245791245791247 0.0076461066
0.5995085995085995 0.4107744107744108 0.007691668
0.5985221674876847 0.4090909090909091 0.0077194264
0.6 0.4090909090909091 0.0077260346
0.599009900990099 0.4074074074074074 0.007739957
0.6004962779156328 0.4074074074074074 0.0077563897
0.6019900497512438 0.4074074074074074 0.007756878
0.600997506234414 0.4057239057239057 0.0077762688
0.6025 0.4057239057239057 0.0078153545
0.6040100250626567 0.4057239057239057 0.007820029
0.6030150753768844 0.40404040404040403 0.007826378
0.6045340050377834 0.40404040404040403 0.0078342995
0.6060606060606061 0.40404040404040403 0.0078647975
0.6075949367088608 0.40404040404040403 0.007869457
0.6091370558375635 0.40404040404040403 0.007874417
0.6106870229007634 0.40404040404040403 0.00789099
0.6096938775510204 0.40235690235690236 0.007897475
0.6112531969309463 0.40235690235690236 0.00797041
0.6102564102564103 0.4006734006734007 0.007975576
0.6118251928020566 0.4006734006734007 0.007977242
0.6134020618556701 0.4006734006734007 0.007998037
0.6149870801033591 0.4006734006734007 0.008017659
0.6139896373056994 0.398989898989899 0.008038085
0.612987012987013 0.39730639730639733 0.008096396
0.6145833333333334 0.39730639730639733 0.008129746
0.6161879895561357 0.39730639730639733 0.008137507
0.6151832460732984 0.3956228956228956 0.008151519
0.6141732283464567 0.3939393939393939 0.008220623
0.6131578947368421 0.39225589225589225 0.008242597
0.6121372031662269 0.39057239057239057 0.008245251
0.6111111111111112 0.3888888888888889 0.008270113
0.6127320954907162 0.3888888888888889 0.008297637
0.6143617021276596 0.3888888888888889 0.008315666
0.616 0.3888888888888889 0.00833194
0.6149732620320856 0.3872053872053872 0.008358118
0.613941018766756 0.38552188552188554 0.008360061
0.6155913978494624 0.38552188552188554 0.008405471
0.6145552560646901 0.3838383838383838 0.008415319
0.6162162162162163 0.3838383838383838 0.008474939
0.6178861788617886 0.3838383838383838 0.008503466
0.6168478260869565 0.38215488215488214 0.008503953
0.6158038147138964 0.38047138047138046 0.008542877
0.6174863387978142 0.38047138047138046 0.008665693
0.6191780821917808 0.38047138047138046 0.008679802
0.6208791208791209 0.38047138047138046 0.008699959
0.6225895316804407 0.38047138047138046 0.008713281
0.6215469613259669 0.3787878787878788 0.008788134
0.6232686980609419 0.3787878787878788 0.008794967
0.6222222222222222 0.3771043771043771 0.008808345
0.6239554317548747 0.3771043771043771 0.008817043
0.6229050279329609 0.37542087542087543 0.008837309
0.6218487394957983 0.37373737373737376 0.008846
0.6235955056179775 0.37373737373737376 0.008851205
0.6225352112676056 0.3720538720538721 0.008925128
0.6242937853107344 0.3720538720538721 0.009023939
0.623229461756374 0.37037037037037035 0.009027168
0.6221590909090909 0.3686868686868687 0.009050896
0.6210826210826211 0.367003367003367 0.009088294
0.62 0.3653198653198653 0.009119714
0.6189111747851003 0.36363636363636365 0.0091977045
0.6206896551724138 0.36363636363636365 0.009309919
0.622478386167147 0.36363636363636365 0.009320367
0.6213872832369942 0.36195286195286197 0.009331309
0.6231884057971014 0.36195286195286197 0.009405018
0.622093023255814 0.3602693602693603 0.009428317
0.6209912536443148 0.35858585858585856 0.009475053
0.6228070175438597 0.35858585858585856 0.009520051
0.6217008797653959 0.3569023569023569 0.009536517
0.6205882352941177 0.3552188552188552 0.009607964
0.6194690265486725 0.35353535353535354 0.00967088
0.6183431952662722 0.35185185185185186 0.009697865
0.6172106824925816 0.3501683501683502 0.009779749
0.6160714285714286 0.3484848484848485 0.009838116
0.6149253731343284 0.3468013468013468 0.009893932
0.6167664670658682 0.3468013468013468 0.009908172
0.6156156156156156 0.3451178451178451 0.009909912
0.6144578313253012 0.3434343434343434 0.009913876
0.6163141993957704 0.3434343434343434 0.009947539
0.6181818181818182 0.3434343434343434 0.009986783
0.6200607902735562 0.3434343434343434 0.009989941
0.6189024390243902 0.34175084175084175 0.010044595
0.617737003058104 0.3400673400673401 0.01010352
0.6165644171779141 0.3383838383838384 0.010196561
0.6153846153846154 0.3367003367003367 0.010222418
0.6172839506172839 0.3367003367003367 0.010228407
0.6160990712074303 0.335016835016835 0.010237385
0.6149068322981367 0.3333333333333333 0.010250654
0.616822429906542 0.3333333333333333 0.010264385
0.615625 0.33164983164983164 0.0103065595
0.6175548589341693 0.33164983164983164 0.01030765
0.6163522012578616 0.32996632996632996 0.010383796
0.6151419558359621 0.3282828282828283 0.010452931
0.6170886075949367 0.3282828282828283 0.010575648
0.6190476190476191 0.3282828282828283 0.01060287
0.6178343949044586 0.3265993265993266 0.010648431
0.6166134185303515 0.32491582491582494 0.010650727
0.6153846153846154 0.32323232323232326 0.010730497
0.617363344051447 0.32323232323232326 0.010747803
0.6161290322580645 0.32154882154882153 0.01075131
0.6148867313915858 0.31986531986531985 0.010816938
0.6168831168831169 0.31986531986531985 0.010910427
0.6156351791530945 0.3181818181818182 0.01096811
0.6143790849673203 0.3164983164983165 0.010976724
0.6131147540983607 0.3148148148148148 0.010999565
0.6118421052631579 0.31313131313131315 0.011020884
0.6138613861386139 0.31313131313131315 0.011033487
0.6125827814569537 0.3114478114478115 0.0110540865
0.6112956810631229 0.30976430976430974 0.011086953
0.61 0.30808080808080807 0.011110465
0.6120401337792643 0.30808080808080807 0.01112175
0.6140939597315436 0.30808080808080807 0.011142308
0.6127946127946128 0.3063973063973064 0.011167996
0.6114864864864865 0.3047138047138047 0.0112892045
0.6135593220338983 0.3047138047138047 0.011324541
0.6122448979591837 0.30303030303030304 0.011334056
0.6109215017064846 0.30134680134680136 0.0114005925
0.613013698630137 0.30134680134680136 0.01140418
0.6116838487972509 0.2996632996632997 0.011434384
0.6103448275862069 0.29797979797979796 0.011477395
0.6089965397923875 0.2962962962962963 0.011487172
0.6111111111111112 0.2962962962962963 0.011533372
0.6097560975609756 0.2946127946127946 0.011659763
0.6083916083916084 0.29292929292929293 0.011690203
0.6105263157894737 0.29292929292929293 0.011692107
0.6091549295774648 0.29124579124579125 0.01187961
0.6113074204946997 0.29124579124579125 0.011988371
0.6099290780141844 0.2895622895622896 0.011998441
0.6120996441281139 0.2895622895622896 0.01203104
0.6107142857142858 0.2878787878787879 0.0120361475
0.6093189964157706 0.28619528619528617 0.01217966
0.6115107913669064 0.28619528619528617 0.012203579
0.6137184115523465 0.28619528619528617 0.012230614
0.6123188405797102 0.2845117845117845 0.012290937
0.6145454545454545 0.2845117845117845 0.01229694
0.6131386861313869 0.2828282828282828 0.0123823285
0.6153846153846154 0.2828282828282828 0.012404913
0.6139705882352942 0.28114478114478114 0.01245125
0.6125461254612546 0.27946127946127947 0.012462027
0.6111111111111112 0.2777777777777778 0.012476657
0.6096654275092936 0.2760942760942761 0.012552782
0.6082089552238806 0.27441077441077444 0.012576322
0.6067415730337079 0.2727272727272727 0.012580009
0.6090225563909775 0.2727272727272727 0.01259465
0.6113207547169811 0.2727272727272727 0.012786932
0.6098484848484849 0.27104377104377103 0.012790155
0.6083650190114068 0.26936026936026936 0.012800126
0.6106870229007634 0.26936026936026936 0.012809806
0.6091954022988506 0.2676767676767677 0.012896928
0.6076923076923076 0.265993265993266 0.013025513
0.6061776061776062 0.26430976430976433 0.013045074
0.6085271317829457 0.26430976430976433 0.013074026
0.6108949416342413 0.26430976430976433 0.013086261
0.609375 0.26262626262626265 0.013119012
0.611764705882353 0.26262626262626265 0.013126279
0.6141732283464567 0.26262626262626265 0.013219045
0.6126482213438735 0.2609427609427609 0.01324898
0.6150793650793651 0.2609427609427609 0.013250271
0.6135458167330677 0.25925925925925924 0.013261221
0.612 0.25757575757575757 0.013262557
0.6104417670682731 0.2558922558922559 0.013496889
0.6129032258064516 0.2558922558922559 0.013517724
0.6153846153846154 0.2558922558922559 0.013543824
0.6138211382113821 0.2542087542087542 0.013575218
0.6122448979591837 0.25252525252525254 0.013652481
0.610655737704918 0.25084175084175087 0.013713766
0.6131687242798354 0.25084175084175087 0.013830693
0.6115702479338843 0.24915824915824916 0.0139386775
0.6099585062240664 0.2474747474747475 0.013943495
0.6083333333333333 0.24579124579124578 0.014125116
0.6108786610878661 0.24579124579124578 0.014178296
0.6134453781512605 0.24579124579124578 0.014270728
0.6160337552742616 0.24579124579124578 0.014307025
0.614406779661017 0.2441077441077441 0.014357874
0.6127659574468085 0.24242424242424243 0.014445958
0.6111111111111112 0.24074074074074073 0.014472127
0.6094420600858369 0.23905723905723905 0.014512482
0.6077586206896551 0.23737373737373738 0.014542174
0.6060606060606061 0.2356902356902357 0.014556633
0.6043478260869565 0.234006734006734 0.014567649
0.6026200873362445 0.23232323232323232 0.014744773
0.6052631578947368 0.23232323232323232 0.0148383295
0.6079295154185022 0.23232323232323232 0.014856404
0.6106194690265486 0.23232323232323232 0.014883567
0.6088888888888889 0.23063973063973064 0.014912941
0.6071428571428571 0.22895622895622897 0.014945606
0.6053811659192825 0.22727272727272727 0.0149782235
0.6036036036036037 0.2255892255892256 0.015008434
0.6063348416289592 0.2255892255892256 0.015158517
0.6045454545454545 0.2239057239057239 0.015324585
0.6027397260273972 0.2222222222222222 0.015338024
0.6055045871559633 0.2222222222222222 0.015487632
0.6082949308755761 0.2222222222222222 0.015502295
0.6064814814814815 0.22053872053872053 0.015522053
0.6093023255813953 0.22053872053872053 0.015691658
0.6074766355140186 0.21885521885521886 0.015740022
0.6103286384976526 0.21885521885521886 0.015819272
0.6132075471698113 0.21885521885521886 0.015833452
0.6161137440758294 0.21885521885521886 0.015851054
0.6142857142857143 0.21717171717171718 0.015862962
0.6172248803827751 0.21717171717171718 0.015867878
0.6153846153846154 0.21548821548821548 0.0159085
0.6135265700483091 0.2138047138047138 0.016016074
0.6116504854368932 0.21212121212121213 0.016030978
0.6097560975609756 0.21043771043771045 0.01603417
0.6127450980392157 0.21043771043771045 0.016062401
0.6157635467980296 0.21043771043771045 0.016066471
0.6138613861386139 0.20875420875420875 0.016106853
0.6169154228855721 0.20875420875420875 0.016210593
0.615 0.20707070707070707 0.016231645
0.6180904522613065 0.20707070707070707 0.016247934
0.6212121212121212 0.20707070707070707 0.016257165
0.6192893401015228 0.2053872053872054 0.016306505
0.6224489795918368 0.2053872053872054 0.016454358
0.6256410256410256 0.2053872053872054 0.016647844
0.6288659793814433 0.2053872053872054 0.016667841
0.6269430051813472 0.2037037037037037 0.016702238
0.6302083333333334 0.2037037037037037 0.016774325
0.6282722513089005 0.20202020202020202 0.016871354
0.6263157894736842 0.20033670033670034 0.016891727
0.6243386243386243 0.19865319865319866 0.016997859
0.6276595744680851 0.19865319865319866 0.017102195
0.6310160427807486 0.19865319865319866 0.01710487
0.6290322580645161 0.19696969696969696 0.017138788
0.6324324324324324 0.19696969696969696 0.017172381
0.6304347826086957 0.19528619528619529 0.017250687
0.6284153005464481 0.1936026936026936 0.017290412
0.6263736263736264 0.1919191919191919 0.017296162
0.6243093922651933 0.19023569023569023 0.017334457
0.6222222222222222 0.18855218855218855 0.017370632
0.6201117318435754 0.18686868686868688 0.017661594
0.6235955056179775 0.18686868686868688 0.017700758
0.6214689265536724 0.18518518518518517 0.017874733
0.625 0.18518518518518517 0.017903792
0.6285714285714286 0.18518518518518517 0.017937679
0.6264367816091954 0.1835016835016835 0.018041493
0.630057803468208 0.1835016835016835 0.018044913
0.627906976744186 0.18181818181818182 0.018149845
0.6257309941520468 0.18013468013468015 0.018336
0.6235294117647059 0.17845117845117844 0.018407347
0.621301775147929 0.17676767676767677 0.018495096
0.6190476190476191 0.1750841750841751 0.018505193
0.6167664670658682 0.1734006734006734 0.018606229
0.6144578313253012 0.1717171717171717 0.01863081
0.6121212121212121 0.17003367003367004 0.018654957
0.6097560975609756 0.16835016835016836 0.018801276
0.6073619631901841 0.16666666666666666 0.01895158
0.6049382716049383 0.16498316498316498 0.019038377
0.6086956521739131 0.16498316498316498 0.019060107
0.6125 0.16498316498316498 0.01912446
0.6163522012578616 0.16498316498316498 0.019373152
0.6139240506329114 0.1632996632996633 0.019390853
0.6114649681528662 0.16161616161616163 0.01939971
0.6089743589743589 0.15993265993265993 0.019487454
0.6064516129032258 0.15824915824915825 0.01948812
0.6038961038961039 0.15656565656565657 0.019530706
0.6013071895424836 0.15488215488215487 0.019760959
0.5986842105263158 0.1531986531986532 0.019924596
0.5960264900662252 0.15151515151515152 0.019948633
0.5933333333333334 0.14983164983164984 0.01997513
0.5906040268456376 0.14814814814814814 0.019997206
0.5878378378378378 0.14646464646464646 0.020132981
0.5918367346938775 0.14646464646464646 0.020184536
0.589041095890411 0.1447811447811448 0.020221602
0.593103448275862 0.1447811447811448 0.020252367
0.5902777777777778 0.14309764309764308 0.020349646
0.5874125874125874 0.1414141414141414 0.020506853
0.5845070422535211 0.13973063973063973 0.020520955
0.5815602836879432 0.13804713804713806 0.020624477
0.5785714285714286 0.13636363636363635 0.020708568
0.5827338129496403 0.13636363636363635 0.020868147
0.5797101449275363 0.13468013468013468 0.021025816
0.583941605839416 0.13468013468013468 0.021049092
0.5808823529411765 0.132996632996633 0.021094562
0.5851851851851851 0.132996632996633 0.021269333
0.582089552238806 0.13131313131313133 0.021296235
0.5864661654135338 0.13131313131313133 0.021410177
0.5833333333333334 0.12962962962962962 0.021570781
0.5877862595419847 0.12962962962962962 0.021603554
0.5923076923076923 0.12962962962962962 0.02177215
0.5891472868217055 0.12794612794612795 0.021897146
0.5859375 0.12626262626262627 0.021975284
0.5826771653543307 0.12457912457912458 0.02220572
0.5793650793650794 0.12289562289562289 0.022219522
0.576 0.12121212121212122 0.022231773
0.5725806451612904 0.11952861952861953 0.022239871
0.5691056910569106 0.11784511784511785 0.022264408
0.5737704918032787 0.11784511784511785 0.022528958
0.5702479338842975 0.11616161616161616 0.02268427
0.5666666666666667 0.11447811447811448 0.022690332
0.5630252100840336 0.1127946127946128 0.022708956
0.5677966101694916 0.1127946127946128 0.02307081
0.5641025641025641 0.1111111111111111 0.023151882
0.5689655172413793 0.1111111111111111 0.02319718
0.5739130434782609 0.1111111111111111 0.02343782
0.5701754385964912 0.10942760942760943 0.023481682
0.5663716814159292 0.10774410774410774 0.023803554
0.5714285714285714 0.10774410774410774 0.023833197
0.5765765765765766 0.10774410774410774 0.023892768
0.5818181818181818 0.10774410774410774 0.02440492
0.5871559633027523 0.10774410774410774 0.024774872
0.5925925925925926 0.10774410774410774 0.025069665
0.5981308411214953 0.10774410774410774 0.025397753
0.6037735849056604 0.10774410774410774 0.02544568
0.6095238095238096 0.10774410774410774 0.025663018
0.6153846153846154 0.10774410774410774 0.02579755
0.6213592233009708 0.10774410774410774 0.026025439
0.6274509803921569 0.10774410774410774 0.026088038
0.6336633663366337 0.10774410774410774 0.026199335
0.63 0.10606060606060606 0.026230332
0.6363636363636364 0.10606060606060606 0.026402457
0.6326530612244898 0.10437710437710437 0.026439903
0.6391752577319587 0.10437710437710437 0.026531627
0.6354166666666666 0.1026936026936027 0.026731465
0.6421052631578947 0.1026936026936027 0.026778271
0.6382978723404256 0.10101010101010101 0.027125549
0.6344086021505376 0.09932659932659933 0.027166225
0.6304347826086957 0.09764309764309764 0.02722426
0.6263736263736264 0.09595959595959595 0.027543068
0.6222222222222222 0.09427609427609428 0.028056432
0.6179775280898876 0.09259259259259259 0.02863346
0.6136363636363636 0.09090909090909091 0.028730452
0.6091954022988506 0.08922558922558922 0.029049981
0.6046511627906976 0.08754208754208755 0.029168744
0.6 0.08585858585858586 0.029548505
0.5952380952380952 0.08417508417508418 0.029846035
0.6024096385542169 0.08417508417508418 0.030043796
0.6097560975609756 0.08417508417508418 0.030057993
0.6172839506172839 0.08417508417508418 0.030113528
0.6125 0.08249158249158249 0.0301754
0.620253164556962 0.08249158249158249 0.030233111
0.6282051282051282 0.08249158249158249 0.03041614
0.6233766233766234 0.08080808080808081 0.030624636
0.631578947368421 0.08080808080808081 0.030939266
0.64 0.08080808080808081 0.0310167
0.6351351351351351 0.07912457912457913 0.031285036
0.6301369863013698 0.07744107744107744 0.031741433
0.6388888888888888 0.07744107744107744 0.031757697
0.6338028169014085 0.07575757575757576 0.0317902
0.6285714285714286 0.07407407407407407 0.03253329
0.6231884057971014 0.0723905723905724 0.03271667
0.6176470588235294 0.0707070707070707 0.032931343
0.6119402985074627 0.06902356902356903 0.033131927
0.6212121212121212 0.06902356902356903 0.03376017
0.6153846153846154 0.06734006734006734 0.0343107
0.609375 0.06565656565656566 0.034527607
0.6031746031746031 0.06397306397306397 0.035498578
0.5967741935483871 0.06228956228956229 0.035533246
0.5901639344262295 0.06060606060606061 0.035540283
0.5833333333333334 0.058922558922558925 0.035683732
0.576271186440678 0.05723905723905724 0.03582266
0.5689655172413793 0.05555555555555555 0.035881296
0.5789473684210527 0.05555555555555555 0.035924066
0.5892857142857143 0.05555555555555555 0.036749113
0.5818181818181818 0.05387205387205387 0.036876447
0.5740740740740741 0.05218855218855219 0.037171356
0.5849056603773585 0.05218855218855219 0.037190523
0.5961538461538461 0.05218855218855219 0.037331913
0.6078431372549019 0.05218855218855219 0.03736454
0.62 0.05218855218855219 0.037584618
0.6326530612244898 0.05218855218855219 0.037965607
0.625 0.050505050505050504 0.03831507
0.6382978723404256 0.050505050505050504 0.038456213
0.6304347826086957 0.04882154882154882 0.03860639
0.6222222222222222 0.04713804713804714 0.039264698
0.6363636363636364 0.04713804713804714 0.040259637
0.627906976744186 0.045454545454545456 0.041379668
0.6428571428571429 0.045454545454545456 0.04150173
0.6341463414634146 0.04377104377104377 0.041568093
0.625 0.04208754208754209 0.041638654
0.6153846153846154 0.04040404040404041 0.04244891
0.6052631578947368 0.03872053872053872 0.04274681
0.5945945945945946 0.037037037037037035 0.04375094
0.5833333333333334 0.03535353535353535 0.044132568
0.5714285714285714 0.03367003367003367 0.044395264
0.5588235294117647 0.03198653198653199 0.044424523
0.5454545454545454 0.030303030303030304 0.0446825
0.53125 0.02861952861952862 0.045062996
0.5161290322580645 0.026936026936026935 0.045254372
0.5333333333333333 0.026936026936026935 0.0453435
0.5172413793103449 0.025252525252525252 0.046069615
0.5357142857142857 0.025252525252525252 0.04625794
0.5185185185185185 0.02356902356902357 0.04634646
0.5384615384615384 0.02356902356902357 0.046395544
0.52 0.021885521885521887 0.046617486
0.5416666666666666 0.021885521885521887 0.047033045
0.5652173913043478 0.021885521885521887 0.047483962
0.5909090909090909 0.021885521885521887 0.048695084
0.5714285714285714 0.020202020202020204 0.048891596
0.55 0.018518518518518517 0.050458934
0.5263157894736842 0.016835016835016835 0.050661262
0.5555555555555556 0.016835016835016835 0.05138172
0.5294117647058824 0.015151515151515152 0.051416032
0.5625 0.015151515151515152 0.052774027
0.6 0.015151515151515152 0.054687686
0.6428571428571429 0.015151515151515152 0.056745805
0.6923076923076923 0.015151515151515152 0.056917194
0.75 0.015151515151515152 0.06011397
0.7272727272727273 0.013468013468013467 0.06479683
0.7 0.011784511784511785 0.06574403
0.6666666666666666 0.010101010101010102 0.06708596
0.75 0.010101010101010102 0.06749335
0.8571428571428571 0.010101010101010102 0.06932155
0.8333333333333334 0.008417508417508417 0.07399941
0.8 0.006734006734006734 0.07826303
0.75 0.005050505050505051 0.078496374
1.0 0.005050505050505051 0.08642239
1.0 0.003367003367003367 0.08789012
1.0 0.0016835016835016834 0.13379416
